{
    "fator_espaco_transformador":
        {
            "data": {"oleo": [8, 10, 12], "seco": [4, 6, 8]},
            "name": "fator_espaco_transformador"
        },
    "number_of_steps":{ 
            "data": {
                "1": [3, 3], "2": [3, 5], "3": [5, 7], "4": [7, 15], "5": [15, 45], "6": [45, 80], "7": [80, 200]
                },
            "name": "number_of_steps"
        },
    "core_dimensions":{
        "data": {
            "Ku": [0.636, 0.786, 0.85, 0.886, 0.907, 0.923, 0.934, 0.942, 0.948], 
            "core_dimensions": [[0.707], [0.85, 0.526], [0.906, 0.707, 0.424], [0.934, 0.796, 0.605, 0.358], [0.95, 0.846, 0.707, 0.534, 0.313], [0.959, 0.875, 0.768, 0.64, 0.483, 0.281], [0.967, 0.898, 0.812, 0.707, 0.584, 0.436, 0.255], [0.974, 0.914, 0.841, 0.755, 0.654, 0.554, 0.404, 0.234], [0.977, 0.929, 0.867, 0.798, 0.707, 0.608, 0.498, 0.37, 0.214]]
        },
        "name": "core_dimensions"
    },
    "insulation_type_constant": {
        "data": {
            "seco": [0.37, 0.46, 0.49, 0.525, 0.5374435665914221, 0.5469243792325056, 0.5534424379232505, 0.5581828442437923, 0.5617381489841986], 
            "oleo": [0.45, 0.56, 0.6, 0.62, 0.6346952595936796, 0.6458916478555305, 0.6535891647855532, 0.6591873589164786, 0.6633860045146728]
        },
        "name": "insulation_type_constant"
    }, 
    "core_magnetic_loss": {
        "data": {
            "induction": [0.0, 0.2, 0.3, 0.4, 0.5, 0.6, 0.7, 0.8, 0.9, 1.0, 1.1, 1.2, 1.4, 1.6, 1.7, 1.8, 1.85], 
            "loss": [0.0, 0.022, 0.048, 0.082, 0.124, 0.174, 0.231, 0.297, 0.37, 0.452, 0.542, 0.643, 0.886, 1.21, 1.463, 1.867, 2.122]
        },
        "name": "core_magnetic_loss"
    },
    "curve_BH": {
        "data":{
            "B": [-1.85, -1.8, -1.7, -1.6, -1.5, -1.4, -1.3, -1.2, -1, -0.8, -0.6, -0.4, -0.2, 0, 0.2, 0.4, 0.6, 0.8, 1, 1.2, 1.3, 1.4, 1.5, 1.6, 1.7, 1.8, 1.85], 
            "H": [-712.275, -362.03, -118.623, -62.081, -42.888, -34.032, -28.97, -25.97, -22.476, -19.53, -16.387, -12.672, -8.03, 0, 8.03, 12.672, 16.387, 19.53, 22.476, 25.97, 28.97, 34.032, 42.888, 62.081, 118.623, 362.03, 712.275]
        },
        "name": "curve_BH"
    }
                
}