[{
    "x":[
        1.3021543128344217,
        1.5635255416644525,
        1.5794831416883455,
        6.6443181301936916,
        0.48786093826602683,
        3.5623160916564953,
        1.1532825588799454
    ],
    "conexao":"delta-estrela",
    "Ke":0.945,
    "S":150,
    "Nfases":3,
    "f":60,
    "V1":0.22,
    "V2":13.8,
    "tipo":"seco",
    "Dfe":7650,
    "Dal":2700,
    "PerdasT":1879.12463,
    "Mativa":538.9402014687677
},
{
    "z":235.72047565797871,
    "n":7,
    "J1":1.3021543128344217,
    "J2":1.5635255416644525,
    "Bm":1.5794831416883455,
    "Ksw":6.6443181301936916,
    "kt":0.48786093826602683,
    "Rjan":3.5623160916564953,
    "rel":1.1532825588799454,
    "Ke":0.945,
    "k":0.53744356659142212,
    "Ku":0.90700000000000025,
    "Bs":1.8,
    "Br":1.2,
    "f":60,
    "Dfe":7650,
    "V1":0.22,
    "V2":13.8,
    "V2menor":10.2,
    "Vf1":0.12701705922171769,
    "Vf2":13.8,
    "Vmedio2":12,
    "Vf2menor":10.2,
    "Q":150.00000000000003,
    "Qf":50,
    "Et":5.9750518209360495,
    "N1":21.257900856468094,
    "N2":2309.6033998644211,
    "Ac":14200.134594495996,
    "Abc":15041.42709334965,
    "numero_degraus": 5,
    "So":16567.362132847975,
    "dc":145.23849565280526,
    "col10":0.7123561342014858,
    "L1":137.97657087016498,
    "L2":122.87176732227324,
    "L3":102.68361642653331,
    "L4":77.557356678598012,
    "L5":45.459649139328043,
    "teta1":0.31756042929152151,
    "teta2":0.56235841201981251,
    "teta3":0.78554916339974368,
    "teta4":1.0074717758619436,
    "teta5":1.2524462159064285,
    "e1":22.675352866054091,
    "e2":16.043987955398038,
    "e3":12.637974959891309,
    "e4":10.041130950879882,
    "e5":7.5719108854139847,
    "Prof":137.94071523527461,
    "d":162.54731351045442,
    "wc":137.97657087016498,
    "a":12.285371320144719,
    "Proffem":109.01435655698047,
    "Kw":0.15169676096332629,
    "Aw":169453.11546824532,
    "Acm2":0.014200134594495996,
    "Awm2":0.16945311546824532,
    "Qm2":150.00000000000009,
    "ww":218.10144986280284,
    "hw":776.9463044598748,
    "D":356.07802073296784,
    "W":850.13261233610069,
    "Abj":17347.015527424424,
    "Aj":16376.767561579978,
    "hy":125.75703625892461,
    "By":1.3695543468743003,
    "H":1028.4603769777241,
    "Vferc":3.3098226288079463E+7,
    "Bfe":7.6500000000000013E-6,
    "Mc":253.20143110380795,
    "Pic":1.1767627,
    "Wic":297.958,
    "Vferj":2.78448483774942E+7,
    "Mj":213.01309008783068,
    "MT":466.2145211916386,
    "Pij":0.84900862,
    "Wij":180.849945,
    "PESOTOTAL":466.2145211916386,
    "Po":502.748352,
    "Ip":1.3193723,
    "atc":58.1432,
    "ATc":135522.438,
    "atj":32.4908447,
    "ATj":55243.0547,
    "ATcj":190765.5,
    "ATT":190765.5,
    "Iq":8.9738636,
    "Io":9.07033443,
    "Fpocalculado":0.145460159,
    "I1":393.64791081110843,
    "Fc1":302.30511616879591,
    "dfc1":19.619042496561043,
    "Swind1":6426.3721879193336,
    "hb":600.76066997010469,
    "tbt1":11.766764637011006,
    "tbt2":23.533529274022012,
    "Dextbt":186.08084278447643,
    "dmbt":174.31407814746541,
    "Lmbt":547.62510790807733,
    "Compbt1":11641.360250422549,
    "VALbt":1.0557728288600376E+7,
    "Mbt3":28.505866379221018,
    "I2menor":3.6231884057971011,
    "I2c":4.166666666666667,
    "Fc2AT":2.6649175569150207,
    "dfc2AT":1.8420310575349219,
    "SwindAT":6154.902649809319,
    "dAt":88.524942517532665,
    "tAT1":11.269700653218798,
    "Laxju":718.01618554538015,
    "tAT2":22.539401306437597,
    "dintAT":259.79307070534475,
    "DextAT":304.87187331821997,
    "dMAT":282.33247201178233,
    "LmATc":886.97361994206119,
    "CompAT":2.0485572882082374E+6,
    "Fc2":2.6649175569150207,
    "dfc2":1.8420310575349219,
    "VALAT":1.6377708851077069E+7,
    "MAT3":44.219813897908089,
    "Cmbt":11.641360250422549,
    "CmAT":2048.5572882082374,
    "R1":0.0011001919734923186,
    "R2":21.962135966360655,
    "I2":3.6231884057971011,
    "PJ1":511.45288023919761,
    "PJ2":864.92343912888509,
    "Pj":1376.3763193680827,
    "Fc":0.604375303,
    "PerdasT":1879.12463,
    "Mativa":538.94020146876767,
    "Jbt":1.3021543128344217,
    "Jat":1.5635255416644525,
    "Dal":2700,
    "S":150.00000000000003,
    "Nfases":3,
    "tipo":"seco",
    "conexao":"delta-estrela"
}]